Est�distica descriptiva
…
# Hacemos la base de datos de los rendimientos:
DatosGraficaRendimientos=Datos$tablaRendimientosCont %>%
  pivot_longer(cols=-Date,names_to="Ticker",values_to="RendimientoCont")
DatosGraficaRendimientos

# A tibble: 13,794 x 3
   Date       Ticker        RendimientoCont
   <date>     <chr>                   <dbl>
 1 2022-09-13 ALFAA.MX                0    
 2 2022-09-13 BIMBOA.MX              -0.913
 3 2022-09-13 GFNORTEO.MX            -2.06 
 4 2022-09-13 GRUMAB.MX              -0.445
 5 2022-09-13 LACOMERUBC.MX           0.194
 6 2022-09-13 VOLARA.MX              -7.25 
 7 2022-09-13 AAPL                   -5.03 
 8 2022-09-13 GOOGL                  -5.07 
 9 2022-09-13 META                   -8.82 
10 2022-09-13 GRN                    -1.47 
# i 13,784 more rows

DatosGraficaRendimientosPL=Datos$tablaPL %>%
  pivot_longer(cols=-Date,names_to="Ticker",values_to="PL")
DatosGraficaRendimientosPL

# A tibble: 13,794 x 3
   Date       Ticker           PL
   <date>     <chr>         <dbl>
 1 2022-09-13 ALFAA.MX      1    
 2 2022-09-13 BIMBOA.MX     0.991
 3 2022-09-13 GFNORTEO.MX   0.980
 4 2022-09-13 GRUMAB.MX     0.996
 5 2022-09-13 LACOMERUBC.MX 1.00 
 6 2022-09-13 VOLARA.MX     0.930
 7 2022-09-13 AAPL          0.951
 8 2022-09-13 GOOGL         0.951
 9 2022-09-13 META          0.916
10 2022-09-13 GRN           0.985
# i 13,784 more rows
…
